{
    "name": "PlayerControls",
    "maps": [
        {
            "name": "Player",
            "id": "da3e8df5-8ee5-4590-81da-1a8fd5eef20a",
            "actions": [
                {
                    "name": "Move",
                    "type": "Value",
                    "id": "4ae89b9c-f4fe-4f68-9d9d-2e53eb9752e6",
                    "expectedControlType": "Vector2",
                    "processors": "",
                    "interactions": ""
                },
                {
                    "name": "Fire",
                    "type": "Button",
                    "id": "7d4fd9f4-9aa9-46a5-994f-ff23422ce6ca",
                    "expectedControlType": "",
                    "processors": "",
                    "interactions": ""
                },
                {
                    "name": "Look",
                    "type": "Value",
                    "id": "27d012f4-a65d-4f53-8d68-bef7da2dcd5a",
                    "expectedControlType": "Vector2",
                    "processors": "",
                    "interactions": ""
                },
                {
                    "name": "Invoke 1",
                    "type": "Button",
                    "id": "43a99976-caac-44d0-bbb9-8618dc273d5d",
                    "expectedControlType": "Button",
                    "processors": "",
                    "interactions": ""
                },
                {
                    "name": "Invoke 2",
                    "type": "Button",
                    "id": "7e6cda8e-77c6-459b-a792-00dd3fd87bf8",
                    "expectedControlType": "",
                    "processors": "",
                    "interactions": ""
                },
                {
                    "name": "Invoke 3",
                    "type": "Button",
                    "id": "5fc1b2ed-00c3-454c-a0e9-02dad96d5390",
                    "expectedControlType": "",
                    "processors": "",
                    "interactions": ""
                },
                {
                    "name": "Invoke 4",
                    "type": "Button",
                    "id": "e989acb3-3e6f-4025-81b1-4858beee26f6",
                    "expectedControlType": "",
                    "processors": "",
                    "interactions": ""
                },
                {
                    "name": "Invoke 5",
                    "type": "Button",
                    "id": "64ea375e-94fa-4eb5-81cb-4ae8d4dc91d2",
                    "expectedControlType": "",
                    "processors": "",
                    "interactions": ""
                }
            ],
            "bindings": [
                {
                    "name": "WASD",
                    "id": "462dfb02-a18b-4379-8a5e-ad230ccd35e7",
                    "path": "2DVector",
                    "interactions": "",
                    "processors": "",
                    "groups": "",
                    "action": "Move",
                    "isComposite": true,
                    "isPartOfComposite": false
                },
                {
                    "name": "up",
                    "id": "409046be-9d20-45ba-9e1a-964a93d9299e",
                    "path": "<Keyboard>/w",
                    "interactions": "",
                    "processors": "",
                    "groups": "Keyboard & Mouse",
                    "action": "Move",
                    "isComposite": false,
                    "isPartOfComposite": true
                },
                {
                    "name": "down",
                    "id": "d3a52b42-1994-4eb6-9b8a-599e3e2db5bf",
                    "path": "<Keyboard>/s",
                    "interactions": "",
                    "processors": "",
                    "groups": "Keyboard & Mouse",
                    "action": "Move",
                    "isComposite": false,
                    "isPartOfComposite": true
                },
                {
                    "name": "left",
                    "id": "efabee3f-464a-4aa8-82f9-3fbc91c599cb",
                    "path": "<Keyboard>/a",
                    "interactions": "",
                    "processors": "",
                    "groups": "Keyboard & Mouse",
                    "action": "Move",
                    "isComposite": false,
                    "isPartOfComposite": true
                },
                {
                    "name": "right",
                    "id": "27ca7d59-5fdf-4471-b320-d48bd651f83c",
                    "path": "<Keyboard>/d",
                    "interactions": "",
                    "processors": "",
                    "groups": "Keyboard & Mouse",
                    "action": "Move",
                    "isComposite": false,
                    "isPartOfComposite": true
                },
                {
                    "name": "Left Joystick",
                    "id": "1670e8aa-6f1b-4119-a52f-f327351ccb72",
                    "path": "2DVector",
                    "interactions": "",
                    "processors": "",
                    "groups": "",
                    "action": "Move",
                    "isComposite": true,
                    "isPartOfComposite": false
                },
                {
                    "name": "up",
                    "id": "688db284-b9d7-4622-b830-1e1a00eb2d9b",
                    "path": "<Gamepad>/leftStick/up",
                    "interactions": "",
                    "processors": "",
                    "groups": "Controller",
                    "action": "Move",
                    "isComposite": false,
                    "isPartOfComposite": true
                },
                {
                    "name": "down",
                    "id": "3bcd2040-b0d1-4813-88f0-46bba516f580",
                    "path": "<Gamepad>/leftStick/down",
                    "interactions": "",
                    "processors": "",
                    "groups": "Controller",
                    "action": "Move",
                    "isComposite": false,
                    "isPartOfComposite": true
                },
                {
                    "name": "left",
                    "id": "43c87435-a153-442b-a3af-869e88c65e50",
                    "path": "<Gamepad>/leftStick/left",
                    "interactions": "",
                    "processors": "",
                    "groups": "Controller",
                    "action": "Move",
                    "isComposite": false,
                    "isPartOfComposite": true
                },
                {
                    "name": "right",
                    "id": "c57f0c22-9797-4de6-8fe4-a260dcd94ecb",
                    "path": "<Gamepad>/leftStick/right",
                    "interactions": "",
                    "processors": "",
                    "groups": "Controller",
                    "action": "Move",
                    "isComposite": false,
                    "isPartOfComposite": true
                },
                {
                    "name": "",
                    "id": "6c569c1f-a507-4525-87f2-598b043f87a1",
                    "path": "<Keyboard>/space",
                    "interactions": "",
                    "processors": "",
                    "groups": "Keyboard & Mouse",
                    "action": "Fire",
                    "isComposite": false,
                    "isPartOfComposite": false
                },
                {
                    "name": "",
                    "id": "37c7b36b-a0af-4cbe-83a6-023853b13930",
                    "path": "<Gamepad>/rightTrigger",
                    "interactions": "",
                    "processors": "",
                    "groups": "Controller",
                    "action": "Fire",
                    "isComposite": false,
                    "isPartOfComposite": false
                },
                {
                    "name": "",
                    "id": "fca3ef80-d672-4e34-842f-4b1d89a73fef",
                    "path": "<Mouse>/leftButton",
                    "interactions": "",
                    "processors": "",
                    "groups": "Keyboard & Mouse",
                    "action": "Fire",
                    "isComposite": false,
                    "isPartOfComposite": false
                },
                {
                    "name": "",
                    "id": "3461aef7-6558-47d7-a283-ca24016eea8b",
                    "path": "<Mouse>/position",
                    "interactions": "",
                    "processors": "",
                    "groups": "Keyboard & Mouse",
                    "action": "Look",
                    "isComposite": false,
                    "isPartOfComposite": false
                },
                {
                    "name": "Right Joystick",
                    "id": "55c90954-1842-4181-a9c4-2688f36d6bed",
                    "path": "2DVector(normalize=false)",
                    "interactions": "",
                    "processors": "",
                    "groups": "",
                    "action": "Look",
                    "isComposite": true,
                    "isPartOfComposite": false
                },
                {
                    "name": "up",
                    "id": "05058eed-33d0-41fb-be88-bfcfb4919d57",
                    "path": "<Gamepad>/rightStick/up",
                    "interactions": "",
                    "processors": "",
                    "groups": "Controller",
                    "action": "Look",
                    "isComposite": false,
                    "isPartOfComposite": true
                },
                {
                    "name": "down",
                    "id": "613b8ae8-fb7d-485e-949f-52dbfc956197",
                    "path": "<Gamepad>/rightStick/down",
                    "interactions": "",
                    "processors": "",
                    "groups": "Controller",
                    "action": "Look",
                    "isComposite": false,
                    "isPartOfComposite": true
                },
                {
                    "name": "left",
                    "id": "de8491cc-8fad-4b77-ae40-c923184614e8",
                    "path": "<Gamepad>/rightStick/left",
                    "interactions": "",
                    "processors": "",
                    "groups": "Controller",
                    "action": "Look",
                    "isComposite": false,
                    "isPartOfComposite": true
                },
                {
                    "name": "right",
                    "id": "28addca9-aa11-48a0-a34f-dd0c94ceca76",
                    "path": "<Gamepad>/rightStick/right",
                    "interactions": "",
                    "processors": "",
                    "groups": "Controller",
                    "action": "Look",
                    "isComposite": false,
                    "isPartOfComposite": true
                },
                {
                    "name": "",
                    "id": "818c85de-ffde-4ac0-b71d-6ddcee1d3c06",
                    "path": "<Keyboard>/1",
                    "interactions": "",
                    "processors": "",
                    "groups": "Keyboard & Mouse",
                    "action": "Invoke 1",
                    "isComposite": false,
                    "isPartOfComposite": false
                },
                {
                    "name": "",
                    "id": "8943224c-d0fc-4f64-9fcc-5e95f911df23",
                    "path": "<Keyboard>/2",
                    "interactions": "",
                    "processors": "",
                    "groups": "Keyboard & Mouse",
                    "action": "Invoke 2",
                    "isComposite": false,
                    "isPartOfComposite": false
                },
                {
                    "name": "",
                    "id": "f480b632-d12a-4b8c-a094-7a450e407f95",
                    "path": "<Keyboard>/3",
                    "interactions": "",
                    "processors": "",
                    "groups": "Keyboard & Mouse",
                    "action": "Invoke 3",
                    "isComposite": false,
                    "isPartOfComposite": false
                },
                {
                    "name": "",
                    "id": "d829b2ec-1614-4702-8c4b-9139aaee63ca",
                    "path": "<Keyboard>/4",
                    "interactions": "",
                    "processors": "",
                    "groups": "Keyboard & Mouse",
                    "action": "Invoke 4",
                    "isComposite": false,
                    "isPartOfComposite": false
                },
                {
                    "name": "",
                    "id": "7a399e09-aca7-4164-82dc-688dd3e062b2",
                    "path": "<Keyboard>/5",
                    "interactions": "",
                    "processors": "",
                    "groups": "Keyboard & Mouse",
                    "action": "Invoke 5",
                    "isComposite": false,
                    "isPartOfComposite": false
                }
            ]
        }
    ],
    "controlSchemes": [
        {
            "name": "Keyboard & Mouse",
            "bindingGroup": "Keyboard & Mouse",
            "devices": [
                {
                    "devicePath": "<Keyboard>",
                    "isOptional": false,
                    "isOR": false
                },
                {
                    "devicePath": "<Mouse>",
                    "isOptional": false,
                    "isOR": false
                }
            ]
        },
        {
            "name": "Controller",
            "bindingGroup": "Controller",
            "devices": [
                {
                    "devicePath": "<XInputController>",
                    "isOptional": false,
                    "isOR": false
                }
            ]
        }
    ]
}