%YAML 1.1
%TAG !u! tag:unity3d.com,2011:
--- !u!114 &11400000
MonoBehaviour:
  m_ObjectHideFlags: 0
  m_CorrespondingSourceObject: {fileID: 0}
  m_PrefabInstance: {fileID: 0}
  m_PrefabAsset: {fileID: 0}
  m_GameObject: {fileID: 0}
  m_Enabled: 1
  m_EditorHideFlags: 0
  m_Script: {fileID: 11500000, guid: c07d0a81c42e3e546afb7e1981c9934b, type: 3}
  m_Name: Push
  m_EditorClassIdentifier: 
  CoolDownDuration: 5
  Duration: 1
  ReverseSingularity: {fileID: 11400000, guid: c4f500b5364d5fa4f88a33c4637b8008, type: 2}
