%YAML 1.1
%TAG !u! tag:unity3d.com,2011:
--- !u!114 &11400000
MonoBehaviour:
  m_ObjectHideFlags: 0
  m_CorrespondingSourceObject: {fileID: 0}
  m_PrefabInstance: {fileID: 0}
  m_PrefabAsset: {fileID: 0}
  m_GameObject: {fileID: 0}
  m_Enabled: 1
  m_EditorHideFlags: 0
  m_Script: {fileID: 11500000, guid: b6658ed15a5373b4b8dff607d508e5dc, type: 3}
  m_Name: AutomaticWeaponMod
  m_EditorClassIdentifier: 
  modName: Auto Weapon
  icon: {fileID: 21300000, guid: 71a57cd6cd8e1324ab25027dbe82744c, type: 3}
  Damage:
    baseValue: 0
    multiplier: 0
    MinValue: 0
  Range:
    baseValue: 0
    multiplier: 0
    MinValue: 0
  ShotSpeed:
    baseValue: 0
    multiplier: 0
    MinValue: 0
  FireRate:
    baseValue: 0
    multiplier: 0.01
    MinValue: 0
  shotCount:
    baseValue: 0
    multiplier: 0
    MinValue: 0
  automatic: 1
