%YAML 1.1
%TAG !u! tag:unity3d.com,2011:
--- !u!114 &11400000
MonoBehaviour:
  m_ObjectHideFlags: 0
  m_CorrespondingSourceObject: {fileID: 0}
  m_PrefabInstance: {fileID: 0}
  m_PrefabAsset: {fileID: 0}
  m_GameObject: {fileID: 0}
  m_Enabled: 1
  m_EditorHideFlags: 0
  m_Script: {fileID: 11500000, guid: 1b441312f56002843907ebf57f39c6e4, type: 3}
  m_Name: StunEffect
  m_EditorClassIdentifier: 
  effectName: Stun
  Duration:
    baseValue: 3
    multiplier: 0
    MinValue: 0
  IsNegativeEffect: 1
  icon: {fileID: 21300000, guid: 0b5b01f70be93c1488f6cab6f35cce94, type: 3}
