%YAML 1.1
%TAG !u! tag:unity3d.com,2011:
--- !u!114 &11400000
MonoBehaviour:
  m_ObjectHideFlags: 0
  m_CorrespondingSourceObject: {fileID: 0}
  m_PrefabInstance: {fileID: 0}
  m_PrefabAsset: {fileID: 0}
  m_GameObject: {fileID: 0}
  m_Enabled: 1
  m_EditorHideFlags: 0
  m_Script: {fileID: 11500000, guid: 6e9ed13d45226024f847d68363337ea5, type: 3}
  m_Name: ReverseSingularityEffect
  m_EditorClassIdentifier: 
  icon: {fileID: 21300000, guid: 59b6413ee819b8646912d53ca439dfd3, type: 3}
  effectName: 
  Duration:
    baseValue: 0.5
    multiplier: 0
    MinValue: 0
  IsNegativeEffect: 0
  isHost: 0
  stack: 0
  power: -2.5
  aoeRadius: 5
