%YAML 1.1
%TAG !u! tag:unity3d.com,2011:
--- !u!1 &7222862355691140635
GameObject:
  m_ObjectHideFlags: 0
  m_CorrespondingSourceObject: {fileID: 0}
  m_PrefabInstance: {fileID: 0}
  m_PrefabAsset: {fileID: 0}
  serializedVersion: 6
  m_Component:
  - component: {fileID: 7222862355691140637}
  - component: {fileID: 7222862355691140634}
  m_Layer: 0
  m_Name: GameController
  m_TagString: Untagged
  m_Icon: {fileID: 0}
  m_NavMeshLayer: 0
  m_StaticEditorFlags: 0
  m_IsActive: 1
--- !u!4 &7222862355691140637
Transform:
  m_ObjectHideFlags: 0
  m_CorrespondingSourceObject: {fileID: 0}
  m_PrefabInstance: {fileID: 0}
  m_PrefabAsset: {fileID: 0}
  m_GameObject: {fileID: 7222862355691140635}
  m_LocalRotation: {x: 0, y: 0, z: 0, w: 1}
  m_LocalPosition: {x: 0, y: 0, z: 0}
  m_LocalScale: {x: 1, y: 1, z: 1}
  m_Children: []
  m_Father: {fileID: 0}
  m_RootOrder: 0
  m_LocalEulerAnglesHint: {x: 0, y: 0, z: 0}
--- !u!114 &7222862355691140634
MonoBehaviour:
  m_ObjectHideFlags: 0
  m_CorrespondingSourceObject: {fileID: 0}
  m_PrefabInstance: {fileID: 0}
  m_PrefabAsset: {fileID: 0}
  m_GameObject: {fileID: 7222862355691140635}
  m_Enabled: 1
  m_EditorHideFlags: 0
  m_Script: {fileID: 11500000, guid: 60415028e2b60e64e9a730d90bc0c3ab, type: 3}
  m_Name: 
  m_EditorClassIdentifier: 
  GameReferences: {fileID: 11400000, guid: e704c539eb4d1534bb7490fb82af95b8, type: 2}
  PlayerPrefab: {fileID: 5589086450086408661, guid: 84e3ed3e51e6b564ebb1863c0941f2e4,
    type: 3}
  greenMonster: {fileID: 1908622081104710, guid: 423ce5b1b44e28f44a7b9d1b01a5253e,
    type: 3}
  flyingMonster: {fileID: 2805974459429007220, guid: 68a0f057d1914234183a72ad5ceff8ff,
    type: 3}
  bossMonster: {fileID: 831639787825974093, guid: 6fd2c807a0407ba4887af7039b38bf3f,
    type: 3}
